0: 1 ATLTILLV00_ELMB_LVCAN1_LVPS_10_states 
1: 2 ATLTILLV00_ELMB_LVCAN1_LVPS_11_states 
2: 3 ATLTILLV00_ELMB_LVCAN1_LVPS_12_states 
3: 4 ATLTILLV00_ELMB_LVCAN1_LVPS_13_states 
4: 5 ATLTILLV00_ELMB_LVCAN1_LVPS_14_states 
5: 6 ATLTILLV00_ELMB_LVCAN1_LVPS_15_states 
6: 7 ATLTILLV00_ELMB_LVCAN1_LVPS_16_states 
7: 8 ATLTILLV00_ELMB_LVCAN1_LVPS_17_states 
8: 9 ATLTILLV00_ELMB_LVCAN1_LVPS_18_states 
9: 10 ATLTILLV00_ELMB_LVCAN1_LVPS_19_states 
10: 11 ATLTILLV00_ELMB_LVCAN1_LVPS_20_states 
11: 12 ATLTILLV00_ELMB_LVCAN1_LVPS_21_states 
12: 13 ATLTILLV00_ELMB_LVCAN1_LVPS_22_states 
13: 14 ATLTILLV00_ELMB_LVCAN1_LVPS_23_states 
14: 15 ATLTILLV00_ELMB_LVCAN1_LVPS_24_states 
15: 16 ATLTILLV00_ELMB_LVCAN1_LVPS_9_states 
16: 17 ATLTILLV00_ELMB_LVCAN2_LVPS_25_states 
17: 18 ATLTILLV00_ELMB_LVCAN2_LVPS_26_states 
18: 19 ATLTILLV00_ELMB_LVCAN2_LVPS_27_states 
19: 20 ATLTILLV00_ELMB_LVCAN2_LVPS_28_states 
20: 21 ATLTILLV00_ELMB_LVCAN2_LVPS_29_states 
21: 22 ATLTILLV00_ELMB_LVCAN2_LVPS_30_states 
22: 23 ATLTILLV00_ELMB_LVCAN2_LVPS_31_states 
23: 24 ATLTILLV00_ELMB_LVCAN2_LVPS_32_states 
24: 25 ATLTILLV00_ELMB_LVCAN2_LVPS_33_states 
25: 26 ATLTILLV00_ELMB_LVCAN2_LVPS_34_states 
26: 27 ATLTILLV00_ELMB_LVCAN2_LVPS_35_states 
27: 28 ATLTILLV00_ELMB_LVCAN2_LVPS_36_states 
28: 29 ATLTILLV00_ELMB_LVCAN2_LVPS_37_states 
29: 30 ATLTILLV00_ELMB_LVCAN2_LVPS_38_states 
30: 31 ATLTILLV00_ELMB_LVCAN2_LVPS_39_states 
31: 32 ATLTILLV00_ELMB_LVCAN2_LVPS_40_states 
32: 33 ATLTILLV00_ELMB_LVCAN3_LVPS_41_states 
33: 34 ATLTILLV00_ELMB_LVCAN3_LVPS_42_states 
34: 35 ATLTILLV00_ELMB_LVCAN3_LVPS_43_states 
35: 36 ATLTILLV00_ELMB_LVCAN3_LVPS_44_states 
36: 37 ATLTILLV00_ELMB_LVCAN3_LVPS_45_states 
37: 38 ATLTILLV00_ELMB_LVCAN3_LVPS_46_states 
38: 39 ATLTILLV00_ELMB_LVCAN3_LVPS_47_states 
39: 40 ATLTILLV00_ELMB_LVCAN3_LVPS_48_states 
40: 41 ATLTILLV00_ELMB_LVCAN3_LVPS_49_states 
41: 42 ATLTILLV00_ELMB_LVCAN3_LVPS_50_states 
42: 43 ATLTILLV00_ELMB_LVCAN3_LVPS_51_states 
43: 44 ATLTILLV00_ELMB_LVCAN3_LVPS_52_states 
44: 45 ATLTILLV00_ELMB_LVCAN3_LVPS_53_states 
45: 46 ATLTILLV00_ELMB_LVCAN3_LVPS_54_states 
46: 47 ATLTILLV00_ELMB_LVCAN3_LVPS_55_states 
47: 48 ATLTILLV00_ELMB_LVCAN3_LVPS_56_states 
48: 49 ATLTILLV00_ELMB_LVCAN4_LVPS_1_states 
49: 50 ATLTILLV00_ELMB_LVCAN4_LVPS_2_states 
50: 51 ATLTILLV00_ELMB_LVCAN4_LVPS_3_states 
51: 52 ATLTILLV00_ELMB_LVCAN4_LVPS_4_states 
52: 53 ATLTILLV00_ELMB_LVCAN4_LVPS_57_states 
53: 54 ATLTILLV00_ELMB_LVCAN4_LVPS_58_states 
54: 55 ATLTILLV00_ELMB_LVCAN4_LVPS_59_states 
55: 56 ATLTILLV00_ELMB_LVCAN4_LVPS_5_states 
56: 57 ATLTILLV00_ELMB_LVCAN4_LVPS_60_states 
57: 58 ATLTILLV00_ELMB_LVCAN4_LVPS_61_states 
58: 59 ATLTILLV00_ELMB_LVCAN4_LVPS_62_states 
59: 60 ATLTILLV00_ELMB_LVCAN4_LVPS_63_states 
60: 61 ATLTILLV00_ELMB_LVCAN4_LVPS_64_states 
61: 62 ATLTILLV00_ELMB_LVCAN4_LVPS_6_states 
62: 63 ATLTILLV00_ELMB_LVCAN4_LVPS_7_states 
63: 64 ATLTILLV00_ELMB_LVCAN4_LVPS_8_states 
64: 65 ATLTILLV01_ELMB_LVCAN1_LVPS_10_states 
65: 66 ATLTILLV01_ELMB_LVCAN1_LVPS_11_states 
66: 67 ATLTILLV01_ELMB_LVCAN1_LVPS_12_states 
67: 68 ATLTILLV01_ELMB_LVCAN1_LVPS_13_states 
68: 69 ATLTILLV01_ELMB_LVCAN1_LVPS_14_states 
69: 70 ATLTILLV01_ELMB_LVCAN1_LVPS_15_states 
70: 71 ATLTILLV01_ELMB_LVCAN1_LVPS_16_states 
71: 72 ATLTILLV01_ELMB_LVCAN1_LVPS_17_states 
72: 73 ATLTILLV01_ELMB_LVCAN1_LVPS_18_states 
73: 74 ATLTILLV01_ELMB_LVCAN1_LVPS_19_states 
74: 75 ATLTILLV01_ELMB_LVCAN1_LVPS_20_states 
75: 76 ATLTILLV01_ELMB_LVCAN1_LVPS_21_states 
76: 77 ATLTILLV01_ELMB_LVCAN1_LVPS_22_states 
77: 78 ATLTILLV01_ELMB_LVCAN1_LVPS_23_states 
78: 79 ATLTILLV01_ELMB_LVCAN1_LVPS_24_states 
79: 80 ATLTILLV01_ELMB_LVCAN1_LVPS_9_states 
80: 81 ATLTILLV01_ELMB_LVCAN2_LVPS_25_states 
81: 82 ATLTILLV01_ELMB_LVCAN2_LVPS_26_states 
82: 83 ATLTILLV01_ELMB_LVCAN2_LVPS_27_states 
83: 84 ATLTILLV01_ELMB_LVCAN2_LVPS_28_states 
84: 85 ATLTILLV01_ELMB_LVCAN2_LVPS_29_states 
85: 86 ATLTILLV01_ELMB_LVCAN2_LVPS_30_states 
86: 87 ATLTILLV01_ELMB_LVCAN2_LVPS_31_states 
87: 88 ATLTILLV01_ELMB_LVCAN2_LVPS_32_states 
88: 89 ATLTILLV01_ELMB_LVCAN2_LVPS_33_states 
89: 90 ATLTILLV01_ELMB_LVCAN2_LVPS_34_states 
90: 91 ATLTILLV01_ELMB_LVCAN2_LVPS_35_states 
91: 92 ATLTILLV01_ELMB_LVCAN2_LVPS_36_states 
92: 93 ATLTILLV01_ELMB_LVCAN2_LVPS_37_states 
93: 94 ATLTILLV01_ELMB_LVCAN2_LVPS_38_states 
94: 95 ATLTILLV01_ELMB_LVCAN2_LVPS_39_states 
95: 96 ATLTILLV01_ELMB_LVCAN2_LVPS_40_states 
96: 97 ATLTILLV01_ELMB_LVCAN3_LVPS_41_states 
97: 98 ATLTILLV01_ELMB_LVCAN3_LVPS_42_states 
98: 99 ATLTILLV01_ELMB_LVCAN3_LVPS_43_states 
99: 100 ATLTILLV01_ELMB_LVCAN3_LVPS_44_states 
100: 101 ATLTILLV01_ELMB_LVCAN3_LVPS_45_states 
101: 102 ATLTILLV01_ELMB_LVCAN3_LVPS_46_states 
102: 103 ATLTILLV01_ELMB_LVCAN3_LVPS_47_states 
103: 104 ATLTILLV01_ELMB_LVCAN3_LVPS_48_states 
104: 105 ATLTILLV01_ELMB_LVCAN3_LVPS_49_states 
105: 106 ATLTILLV01_ELMB_LVCAN3_LVPS_50_states 
106: 107 ATLTILLV01_ELMB_LVCAN3_LVPS_51_states 
107: 108 ATLTILLV01_ELMB_LVCAN3_LVPS_52_states 
108: 109 ATLTILLV01_ELMB_LVCAN3_LVPS_53_states 
109: 110 ATLTILLV01_ELMB_LVCAN3_LVPS_54_states 
110: 111 ATLTILLV01_ELMB_LVCAN3_LVPS_55_states 
111: 112 ATLTILLV01_ELMB_LVCAN3_LVPS_56_states 
112: 113 ATLTILLV01_ELMB_LVCAN4_LVPS_1_states 
113: 114 ATLTILLV01_ELMB_LVCAN4_LVPS_2_states 
114: 115 ATLTILLV01_ELMB_LVCAN4_LVPS_3_states 
115: 116 ATLTILLV01_ELMB_LVCAN4_LVPS_4_states 
116: 117 ATLTILLV01_ELMB_LVCAN4_LVPS_57_states 
117: 118 ATLTILLV01_ELMB_LVCAN4_LVPS_58_states 
118: 119 ATLTILLV01_ELMB_LVCAN4_LVPS_59_states 
119: 120 ATLTILLV01_ELMB_LVCAN4_LVPS_5_states 
120: 121 ATLTILLV01_ELMB_LVCAN4_LVPS_60_states 
121: 122 ATLTILLV01_ELMB_LVCAN4_LVPS_61_states 
122: 123 ATLTILLV01_ELMB_LVCAN4_LVPS_62_states 
123: 124 ATLTILLV01_ELMB_LVCAN4_LVPS_63_states 
124: 125 ATLTILLV01_ELMB_LVCAN4_LVPS_64_states 
125: 126 ATLTILLV01_ELMB_LVCAN4_LVPS_6_states 
126: 127 ATLTILLV01_ELMB_LVCAN4_LVPS_7_states 
127: 128 ATLTILLV01_ELMB_LVCAN4_LVPS_8_states 
128: 129 ATLTILLV02_ELMB_LVCAN1_LVPS_10_states 
129: 130 ATLTILLV02_ELMB_LVCAN1_LVPS_11_states 
130: 131 ATLTILLV02_ELMB_LVCAN1_LVPS_12_states 
131: 132 ATLTILLV02_ELMB_LVCAN1_LVPS_13_states 
132: 133 ATLTILLV02_ELMB_LVCAN1_LVPS_14_states 
133: 134 ATLTILLV02_ELMB_LVCAN1_LVPS_15_states 
134: 135 ATLTILLV02_ELMB_LVCAN1_LVPS_16_states 
135: 136 ATLTILLV02_ELMB_LVCAN1_LVPS_17_states 
136: 137 ATLTILLV02_ELMB_LVCAN1_LVPS_18_states 
137: 138 ATLTILLV02_ELMB_LVCAN1_LVPS_19_states 
138: 139 ATLTILLV02_ELMB_LVCAN1_LVPS_20_states 
139: 140 ATLTILLV02_ELMB_LVCAN1_LVPS_21_states 
140: 141 ATLTILLV02_ELMB_LVCAN1_LVPS_22_states 
141: 142 ATLTILLV02_ELMB_LVCAN1_LVPS_23_states 
142: 143 ATLTILLV02_ELMB_LVCAN1_LVPS_24_states 
143: 144 ATLTILLV02_ELMB_LVCAN1_LVPS_9_states 
144: 145 ATLTILLV02_ELMB_LVCAN2_LVPS_25_states 
145: 146 ATLTILLV02_ELMB_LVCAN2_LVPS_26_states 
146: 147 ATLTILLV02_ELMB_LVCAN2_LVPS_27_states 
147: 148 ATLTILLV02_ELMB_LVCAN2_LVPS_28_states 
148: 149 ATLTILLV02_ELMB_LVCAN2_LVPS_29_states 
149: 150 ATLTILLV02_ELMB_LVCAN2_LVPS_30_states 
150: 151 ATLTILLV02_ELMB_LVCAN2_LVPS_31_states 
151: 152 ATLTILLV02_ELMB_LVCAN2_LVPS_32_states 
152: 153 ATLTILLV02_ELMB_LVCAN2_LVPS_33_states 
153: 154 ATLTILLV02_ELMB_LVCAN2_LVPS_34_states 
154: 155 ATLTILLV02_ELMB_LVCAN2_LVPS_35_states 
155: 156 ATLTILLV02_ELMB_LVCAN2_LVPS_36_states 
156: 157 ATLTILLV02_ELMB_LVCAN2_LVPS_37_states 
157: 158 ATLTILLV02_ELMB_LVCAN2_LVPS_38_states 
158: 159 ATLTILLV02_ELMB_LVCAN2_LVPS_39_states 
159: 160 ATLTILLV02_ELMB_LVCAN2_LVPS_40_states 
160: 161 ATLTILLV02_ELMB_LVCAN3_LVPS_41_states 
161: 162 ATLTILLV02_ELMB_LVCAN3_LVPS_42_states 
162: 163 ATLTILLV02_ELMB_LVCAN3_LVPS_43_states 
163: 164 ATLTILLV02_ELMB_LVCAN3_LVPS_44_states 
164: 165 ATLTILLV02_ELMB_LVCAN3_LVPS_45_states 
165: 166 ATLTILLV02_ELMB_LVCAN3_LVPS_46_states 
166: 167 ATLTILLV02_ELMB_LVCAN3_LVPS_47_states 
167: 168 ATLTILLV02_ELMB_LVCAN3_LVPS_48_states 
168: 169 ATLTILLV02_ELMB_LVCAN3_LVPS_49_states 
169: 170 ATLTILLV02_ELMB_LVCAN3_LVPS_50_states 
170: 171 ATLTILLV02_ELMB_LVCAN3_LVPS_51_states 
171: 172 ATLTILLV02_ELMB_LVCAN3_LVPS_52_states 
172: 173 ATLTILLV02_ELMB_LVCAN3_LVPS_53_states 
173: 174 ATLTILLV02_ELMB_LVCAN3_LVPS_54_states 
174: 175 ATLTILLV02_ELMB_LVCAN3_LVPS_55_states 
175: 176 ATLTILLV02_ELMB_LVCAN3_LVPS_56_states 
176: 177 ATLTILLV02_ELMB_LVCAN4_LVPS_1_states 
177: 178 ATLTILLV02_ELMB_LVCAN4_LVPS_2_states 
178: 179 ATLTILLV02_ELMB_LVCAN4_LVPS_3_states 
179: 180 ATLTILLV02_ELMB_LVCAN4_LVPS_4_states 
180: 181 ATLTILLV02_ELMB_LVCAN4_LVPS_57_states 
181: 182 ATLTILLV02_ELMB_LVCAN4_LVPS_58_states 
182: 183 ATLTILLV02_ELMB_LVCAN4_LVPS_59_states 
183: 184 ATLTILLV02_ELMB_LVCAN4_LVPS_5_states 
184: 185 ATLTILLV02_ELMB_LVCAN4_LVPS_60_states 
185: 186 ATLTILLV02_ELMB_LVCAN4_LVPS_61_states 
186: 187 ATLTILLV02_ELMB_LVCAN4_LVPS_62_states 
187: 188 ATLTILLV02_ELMB_LVCAN4_LVPS_63_states 
188: 189 ATLTILLV02_ELMB_LVCAN4_LVPS_64_states 
189: 190 ATLTILLV02_ELMB_LVCAN4_LVPS_6_states 
190: 191 ATLTILLV02_ELMB_LVCAN4_LVPS_7_states 
191: 192 ATLTILLV02_ELMB_LVCAN4_LVPS_8_states 
192: 193 ATLTILLV03_ELMB_LVCAN1_LVPS_10_states 
193: 194 ATLTILLV03_ELMB_LVCAN1_LVPS_11_states 
194: 195 ATLTILLV03_ELMB_LVCAN1_LVPS_12_states 
195: 196 ATLTILLV03_ELMB_LVCAN1_LVPS_13_states 
196: 197 ATLTILLV03_ELMB_LVCAN1_LVPS_14_states 
197: 198 ATLTILLV03_ELMB_LVCAN1_LVPS_15_states 
198: 199 ATLTILLV03_ELMB_LVCAN1_LVPS_16_states 
199: 200 ATLTILLV03_ELMB_LVCAN1_LVPS_17_states 
200: 201 ATLTILLV03_ELMB_LVCAN1_LVPS_18_states 
201: 202 ATLTILLV03_ELMB_LVCAN1_LVPS_19_states 
202: 203 ATLTILLV03_ELMB_LVCAN1_LVPS_20_states 
203: 204 ATLTILLV03_ELMB_LVCAN1_LVPS_21_states 
204: 205 ATLTILLV03_ELMB_LVCAN1_LVPS_22_states 
205: 206 ATLTILLV03_ELMB_LVCAN1_LVPS_23_states 
206: 207 ATLTILLV03_ELMB_LVCAN1_LVPS_24_states 
207: 208 ATLTILLV03_ELMB_LVCAN1_LVPS_9_states 
208: 209 ATLTILLV03_ELMB_LVCAN2_LVPS_25_states 
209: 210 ATLTILLV03_ELMB_LVCAN2_LVPS_26_states 
210: 211 ATLTILLV03_ELMB_LVCAN2_LVPS_27_states 
211: 212 ATLTILLV03_ELMB_LVCAN2_LVPS_28_states 
212: 213 ATLTILLV03_ELMB_LVCAN2_LVPS_29_states 
213: 214 ATLTILLV03_ELMB_LVCAN2_LVPS_30_states 
214: 215 ATLTILLV03_ELMB_LVCAN2_LVPS_31_states 
215: 216 ATLTILLV03_ELMB_LVCAN2_LVPS_32_states 
216: 217 ATLTILLV03_ELMB_LVCAN2_LVPS_33_states 
217: 218 ATLTILLV03_ELMB_LVCAN2_LVPS_34_states 
218: 219 ATLTILLV03_ELMB_LVCAN2_LVPS_35_states 
219: 220 ATLTILLV03_ELMB_LVCAN2_LVPS_36_states 
220: 221 ATLTILLV03_ELMB_LVCAN2_LVPS_37_states 
221: 222 ATLTILLV03_ELMB_LVCAN2_LVPS_38_states 
222: 223 ATLTILLV03_ELMB_LVCAN2_LVPS_39_states 
223: 224 ATLTILLV03_ELMB_LVCAN2_LVPS_40_states 
224: 225 ATLTILLV03_ELMB_LVCAN3_LVPS_41_states 
225: 226 ATLTILLV03_ELMB_LVCAN3_LVPS_42_states 
226: 227 ATLTILLV03_ELMB_LVCAN3_LVPS_43_states 
227: 228 ATLTILLV03_ELMB_LVCAN3_LVPS_44_states 
228: 229 ATLTILLV03_ELMB_LVCAN3_LVPS_45_states 
229: 230 ATLTILLV03_ELMB_LVCAN3_LVPS_46_states 
230: 231 ATLTILLV03_ELMB_LVCAN3_LVPS_47_states 
231: 232 ATLTILLV03_ELMB_LVCAN3_LVPS_48_states 
232: 233 ATLTILLV03_ELMB_LVCAN3_LVPS_49_states 
233: 234 ATLTILLV03_ELMB_LVCAN3_LVPS_50_states 
234: 235 ATLTILLV03_ELMB_LVCAN3_LVPS_51_states 
235: 236 ATLTILLV03_ELMB_LVCAN3_LVPS_52_states 
236: 237 ATLTILLV03_ELMB_LVCAN3_LVPS_53_states 
237: 238 ATLTILLV03_ELMB_LVCAN3_LVPS_54_states 
238: 239 ATLTILLV03_ELMB_LVCAN3_LVPS_55_states 
239: 240 ATLTILLV03_ELMB_LVCAN3_LVPS_56_states 
240: 241 ATLTILLV03_ELMB_LVCAN4_LVPS_1_states 
241: 242 ATLTILLV03_ELMB_LVCAN4_LVPS_2_states 
242: 243 ATLTILLV03_ELMB_LVCAN4_LVPS_3_states 
243: 244 ATLTILLV03_ELMB_LVCAN4_LVPS_4_states 
244: 245 ATLTILLV03_ELMB_LVCAN4_LVPS_57_states 
245: 246 ATLTILLV03_ELMB_LVCAN4_LVPS_58_states 
246: 247 ATLTILLV03_ELMB_LVCAN4_LVPS_59_states 
247: 248 ATLTILLV03_ELMB_LVCAN4_LVPS_5_states 
248: 249 ATLTILLV03_ELMB_LVCAN4_LVPS_60_states 
249: 250 ATLTILLV03_ELMB_LVCAN4_LVPS_61_states 
250: 251 ATLTILLV03_ELMB_LVCAN4_LVPS_62_states 
251: 252 ATLTILLV03_ELMB_LVCAN4_LVPS_63_states 
252: 253 ATLTILLV03_ELMB_LVCAN4_LVPS_64_states 
253: 254 ATLTILLV03_ELMB_LVCAN4_LVPS_6_states 
254: 255 ATLTILLV03_ELMB_LVCAN4_LVPS_7_states 
255: 256 ATLTILLV03_ELMB_LVCAN4_LVPS_8_states 
